$MeshFormat
2.2 0 8
$EndMeshFormat
$PhysicalNames
4
2 1 "source"
2 2 "infinite"
3 3 "void"
3 4 "shield"
$EndPhysicalNames
$Nodes
87
1 0 0 0
2 5 0 0
3 0 5 0
4 0 0 5
5 0 5 5
6 5 0 5
7 0 0 30
8 0 5 30
9 5 0 30
10 0 0 35
11 0 5 35
12 5 0 35
13 0 0 1.25
14 0 0 2.5
15 0 0 3.75
16 0 5 1.25
17 0 5 2.5
18 0 5 3.75
19 5 0 1.25
20 5 0 2.5
21 5 0 3.75
22 0 0 6.25
23 0 0 7.5
24 0 0 8.75
25 0 0 10
26 0 0 11.25
27 0 0 12.5
28 0 0 13.75
29 0 0 15
30 0 0 16.25
31 0 0 17.5
32 0 0 18.75
33 0 0 20
34 0 0 21.25
35 0 0 22.5
36 0 0 23.75
37 0 0 25
38 0 0 26.25
39 0 0 27.5
40 0 0 28.75
41 0 5 6.25
42 0 5 7.5
43 0 5 8.75
44 0 5 10
45 0 5 11.25
46 0 5 12.5
47 0 5 13.75
48 0 5 15
49 0 5 16.25
50 0 5 17.5
51 0 5 18.75
52 0 5 20
53 0 5 21.25
54 0 5 22.5
55 0 5 23.75
56 0 5 25
57 0 5 26.25
58 0 5 27.5
59 0 5 28.75
60 5 0 6.25
61 5 0 7.5
62 5 0 8.75
63 5 0 10
64 5 0 11.25
65 5 0 12.5
66 5 0 13.75
67 5 0 15
68 5 0 16.25
69 5 0 17.5
70 5 0 18.75
71 5 0 20
72 5 0 21.25
73 5 0 22.5
74 5 0 23.75
75 5 0 25
76 5 0 26.25
77 5 0 27.5
78 5 0 28.75
79 0 0 31.25
80 0 0 32.5
81 0 0 33.75
82 0 5 31.25
83 0 5 32.5
84 0 5 33.75
85 5 0 31.25
86 5 0 32.5
87 5 0 33.75
$EndNodes
$Elements
113
1 2 2 1 30 3 2 1
2 3 2 2 38 1 3 16 13
3 3 2 2 38 13 16 17 14
4 3 2 2 38 14 17 18 15
5 3 2 2 38 15 18 5 4
6 3 2 2 42 3 2 19 16
7 3 2 2 42 16 19 20 17
8 3 2 2 42 17 20 21 18
9 3 2 2 42 18 21 6 5
10 3 2 2 46 2 1 13 19
11 3 2 2 46 19 13 14 20
12 3 2 2 46 20 14 15 21
13 3 2 2 46 21 15 4 6
14 3 2 2 55 4 5 41 22
15 3 2 2 55 22 41 42 23
16 3 2 2 55 23 42 43 24
17 3 2 2 55 24 43 44 25
18 3 2 2 55 25 44 45 26
19 3 2 2 55 26 45 46 27
20 3 2 2 55 27 46 47 28
21 3 2 2 55 28 47 48 29
22 3 2 2 55 29 48 49 30
23 3 2 2 55 30 49 50 31
24 3 2 2 55 31 50 51 32
25 3 2 2 55 32 51 52 33
26 3 2 2 55 33 52 53 34
27 3 2 2 55 34 53 54 35
28 3 2 2 55 35 54 55 36
29 3 2 2 55 36 55 56 37
30 3 2 2 55 37 56 57 38
31 3 2 2 55 38 57 58 39
32 3 2 2 55 39 58 59 40
33 3 2 2 55 40 59 8 7
34 3 2 2 59 5 6 60 41
35 3 2 2 59 41 60 61 42
36 3 2 2 59 42 61 62 43
37 3 2 2 59 43 62 63 44
38 3 2 2 59 44 63 64 45
39 3 2 2 59 45 64 65 46
40 3 2 2 59 46 65 66 47
41 3 2 2 59 47 66 67 48
42 3 2 2 59 48 67 68 49
43 3 2 2 59 49 68 69 50
44 3 2 2 59 50 69 70 51
45 3 2 2 59 51 70 71 52
46 3 2 2 59 52 71 72 53
47 3 2 2 59 53 72 73 54
48 3 2 2 59 54 73 74 55
49 3 2 2 59 55 74 75 56
50 3 2 2 59 56 75 76 57
51 3 2 2 59 57 76 77 58
52 3 2 2 59 58 77 78 59
53 3 2 2 59 59 78 9 8
54 3 2 2 63 6 4 22 60
55 3 2 2 63 60 22 23 61
56 3 2 2 63 61 23 24 62
57 3 2 2 63 62 24 25 63
58 3 2 2 63 63 25 26 64
59 3 2 2 63 64 26 27 65
60 3 2 2 63 65 27 28 66
61 3 2 2 63 66 28 29 67
62 3 2 2 63 67 29 30 68
63 3 2 2 63 68 30 31 69
64 3 2 2 63 69 31 32 70
65 3 2 2 63 70 32 33 71
66 3 2 2 63 71 33 34 72
67 3 2 2 63 72 34 35 73
68 3 2 2 63 73 35 36 74
69 3 2 2 63 74 36 37 75
70 3 2 2 63 75 37 38 76
71 3 2 2 63 76 38 39 77
72 3 2 2 63 77 39 40 78
73 3 2 2 63 78 40 7 9
74 3 2 2 72 7 8 82 79
75 3 2 2 72 79 82 83 80
76 3 2 2 72 80 83 84 81
77 3 2 2 72 81 84 11 10
78 3 2 2 76 8 9 85 82
79 3 2 2 76 82 85 86 83
80 3 2 2 76 83 86 87 84
81 3 2 2 76 84 87 12 11
82 3 2 2 80 9 7 79 85
83 3 2 2 80 85 79 80 86
84 3 2 2 80 86 80 81 87
85 3 2 2 80 87 81 10 12
86 6 2 3 1 2 3 1 19 16 13
87 6 2 3 1 19 16 13 20 17 14
88 6 2 3 1 20 17 14 21 18 15
89 6 2 3 1 21 18 15 6 5 4
90 6 2 4 2 6 5 4 60 41 22
91 6 2 4 2 60 41 22 61 42 23
92 6 2 4 2 61 42 23 62 43 24
93 6 2 4 2 62 43 24 63 44 25
94 6 2 4 2 63 44 25 64 45 26
95 6 2 4 2 64 45 26 65 46 27
96 6 2 4 2 65 46 27 66 47 28
97 6 2 4 2 66 47 28 67 48 29
98 6 2 4 2 67 48 29 68 49 30
99 6 2 4 2 68 49 30 69 50 31
100 6 2 4 2 69 50 31 70 51 32
101 6 2 4 2 70 51 32 71 52 33
102 6 2 4 2 71 52 33 72 53 34
103 6 2 4 2 72 53 34 73 54 35
104 6 2 4 2 73 54 35 74 55 36
105 6 2 4 2 74 55 36 75 56 37
106 6 2 4 2 75 56 37 76 57 38
107 6 2 4 2 76 57 38 77 58 39
108 6 2 4 2 77 58 39 78 59 40
109 6 2 4 2 78 59 40 9 8 7
110 6 2 3 3 9 8 7 85 82 79
111 6 2 3 3 85 82 79 86 83 80
112 6 2 3 3 86 83 80 87 84 81
113 6 2 3 3 87 84 81 12 11 10
$EndElements
